[
  {
    "o0": "https://2ch.hk/biz/thumb/1015374/15448853588700s.jpg"
  },
  {
    "o0": "https://2ch.hk/biz/thumb/1007022/15412410404140s.jpg"
  },
  {
    "o0": "https://2ch.hk/biz/thumb/1007022/15412410404151s.jpg"
  },
  {
    "o0": "https://2ch.hk/biz/thumb/1019149/15468148598880s.jpg"
  },
  {
    "o0": "https://2ch.hk/biz/thumb/1019149/15468148598881s.jpg"
  },
  {
    "o0": "https://2ch.hk/biz/thumb/1018877/15466536086790s.jpg"
  },
  {
    "o0": "https://2ch.hk/biz/thumb/997254/15358127549390s.jpg"
  },
  {
    "o0": "https://2ch.hk/biz/thumb/997254/15358127549401s.jpg"
  },
  {
    "o0": "https://2ch.hk/biz/thumb/997254/15468864998440s.jpg"
  },
  {
    "o0": "https://2ch.hk/biz/thumb/1017128/15457240522600s.jpg"
  },
  {
    "o0": "https://2ch.hk/biz/thumb/1017128/15457240522601s.jpg"
  },
  {
    "o0": "https://2ch.hk/biz/thumb/1017128/15457240522602s.jpg"
  },
  {
    "o0": "https://2ch.hk/biz/thumb/1006634/15410247475490s.jpg"
  },
  {
    "o0": "https://2ch.hk/biz/thumb/1018874/15466489013190s.jpg"
  },
  {
    "o0": "https://2ch.hk/biz/thumb/923150/14943382201830s.jpg"
  },
  {
    "o0": "https://2ch.hk/biz/thumb/1015325/15448650409210s.jpg"
  },
  {
    "o0": "https://2ch.hk/biz/thumb/1015325/15448650409211s.jpg"
  },
  {
    "o0": "https://2ch.hk/biz/thumb/1015325/15448650409212s.jpg"
  },
  {
    "o0": "https://2ch.hk/biz/thumb/1015325/15448650409223s.jpg"
  },
  {
    "o0": "https://2ch.hk/biz/thumb/999603/15372999094140s.jpg"
  },
  {
    "o0": "https://2ch.hk/biz/thumb/999603/15372999094361s.jpg"
  },
  {
    "o0": "https://2ch.hk/biz/thumb/999603/15372999094382s.jpg"
  },
  {
    "o0": "https://2ch.hk/biz/thumb/999603/15372999094423s.jpg"
  },
  {
    "o0": "https://2ch.hk/biz/thumb/1017654/15459213298050s.jpg"
  },
  {
    "o0": "https://2ch.hk/biz/thumb/1019216/15468604474160s.jpg"
  },
  {
    "o0": "https://2ch.hk/biz/thumb/1018810/15466160726650s.jpg"
  },
  {
    "o0": "https://2ch.hk/biz/thumb/1019217/15468613182020s.jpg"
  },
  {
    "o0": "https://2ch.hk/biz/thumb/1010215/15427376916700s.jpg"
  },
  {
    "o0": "https://2ch.hk/biz/thumb/1019122/15468041490760s.jpg"
  },
  {
    "o0": "https://2ch.hk/biz/thumb/1019122/15468043539260s.jpg"
  },
  {
    "o0": "https://2ch.hk/biz/thumb/1019122/15468104928220s.jpg"
  },
  {
    "o0": "https://2ch.hk/biz/thumb/1019122/15468494043220s.jpg"
  },
  {
    "o0": "https://2ch.hk/biz/thumb/1018493/15464242591930s.jpg"
  },
  {
    "o0": "https://2ch.hk/biz/thumb/1019181/15468450358340s.jpg"
  },
  {
    "o0": "https://2ch.hk/biz/thumb/917100/14917821662880s.jpg"
  },
  {
    "o0": "https://2ch.hk/biz/thumb/1019103/15467965882950s.jpg"
  }
]